[
    {
        "directory":"/home/eirik/git/advent-of-code-2020/c++/",
        "command":"/usr/bin/clang -std=c++17 -Wall -g day2.cpp",
        "file":"/home/eirik/git/advent-of-code-2020/c++/day2.cpp"
    }
]
